crcChecker_24bitSerial/simulation/qsim/crcChecker_24bitSerial.msim.vcd
$comment
	File created using the following command:
		vcd file crcChecker_24bitSerial.msim.vcd -direction
$end
$date
	Sat Nov 11 15:52:44 2023
$end
$version
	ModelSim Version 2020.1
$end
$timescale
	1ps
$end

$scope module crcchecker_24bitserial_vhd_vec_tst $end
$var wire 1 ! clk $end
$var wire 1 " dIn $end
$var wire 1 # err $end
$var wire 1 $ nGRst $end

$scope module i1 $end
$var wire 1 % gnd $end
$var wire 1 & vcc $end
$var wire 1 ' unknown $end
$var wire 1 ( devoe $end
$var wire 1 ) devclrn $end
$var wire 1 * devpor $end
$var wire 1 + ww_devoe $end
$var wire 1 , ww_devclrn $end
$var wire 1 - ww_devpor $end
$var wire 1 . ww_nGRst $end
$var wire 1 / ww_clk $end
$var wire 1 0 ww_dIn $end
$var wire 1 1 ww_err $end
$var wire 1 2 \dIn~input_o\ $end
$var wire 1 3 \clk~input_o\ $end
$var wire 1 4 \nGRst~input_o\ $end
$var wire 1 5 \~QUARTUS_CREATED_GND~I_combout\ $end
$upscope $end
$upscope $end
$enddefinitions $end
#0
$dumpvars
0!
1"
1#
1$
0%
1&
x'
1(
1)
1*
1+
1,
1-
1.
0/
10
11
12
03
14
x5
$end
#10000
1!
1/
13
#20000
0!
0"
0/
00
02
03
#30000
1!
1/
13
#40000
0!
1"
0$
0/
10
0.
04
12
03
#50000
1!
1/
13
#60000
0!
0"
1$
0/
00
1.
14
02
03
#70000
1!
1/
13
#80000
0!
1"
0$
0/
10
0.
04
12
03
#90000
1!
1/
13
#100000
0!
0"
0/
00
02
03
#110000
1!
1/
13
#120000
0!
1"
1$
0/
10
1.
14
12
03
#130000
1!
1/
13
#140000
0!
0"
0/
00
02
03
#150000
1!
1/
13
#160000
0!
1"
0/
10
12
03
#170000
1!
1/
13
#180000
0!
0"
0$
0/
00
0.
04
02
03
#190000
1!
1/
13
#200000
0!
1"
0/
10
12
03
#210000
1!
1/
13
#220000
0!
0"
0/
00
02
03
#230000
1!
1/
13
#240000
0!
1"
0/
10
12
03
#250000
1!
1/
13
#260000
0!
0"
0/
00
02
03
#270000
1!
1/
13
#280000
0!
1"
0/
10
12
03
#290000
1!
1/
13
#300000
0!
0"
0/
00
02
03
#310000
1!
1/
13
#320000
0!
0/
03
#330000
1!
1/
13
#340000
0!
1"
0/
10
12
03
#350000
1!
1/
13
#360000
0!
0/
03
#370000
1!
1/
13
#380000
0!
0/
03
#390000
1!
1/
13
#400000
0!
0"
0/
00
02
03
#410000
1!
1/
13
#420000
0!
1"
0/
10
12
03
#430000
1!
1/
13
#440000
0!
0"
0/
00
02
03
#450000
1!
1/
13
#460000
0!
0/
03
#470000
1!
1/
13
#480000
0!
0/
03
#490000
1!
1/
13
#500000
0!
0/
03
#510000
1!
1/
13
#520000
0!
0/
03
#530000
1!
1/
13
#540000
0!
0/
03
#550000
1!
1/
13
#560000
0!
0/
03
#570000
1!
1/
13
#580000
0!
0/
03
#590000
1!
1/
13
#600000
0!
0/
03
#610000
1!
1/
13
#620000
0!
0/
03
#630000
1!
1/
13
#640000
0!
0/
03
#650000
1!
1/
13
#660000
0!
0/
03
#670000
1!
1/
13
#680000
0!
0/
03
#690000
1!
1/
13
#700000
0!
0/
03
#710000
1!
1/
13
#720000
0!
0/
03
#730000
1!
1/
13
#740000
0!
0/
03
#750000
1!
1/
13
#760000
0!
0/
03
#770000
1!
1/
13
#780000
0!
0/
03
#790000
1!
1/
13
#800000
0!
0/
03
#810000
1!
1/
13
#820000
0!
0/
03
#830000
1!
1/
13
#840000
0!
0/
03
#850000
1!
1/
13
#860000
0!
0/
03
#870000
1!
1/
13
#880000
0!
0/
03
#890000
1!
1/
13
#900000
0!
0/
03
#910000
1!
1/
13
#920000
0!
0/
03
#930000
1!
1/
13
#940000
0!
0/
03
#950000
1!
1/
13
#960000
0!
0/
03
#970000
1!
1/
13
#980000
0!
0/
03
#990000
1!
1/
13
