crcChecker_24bitSerial/simulation/qsim/crcChecker_24bitSerial.msim.vcd
$comment
	File created using the following command:
		vcd file crcChecker_24bitSerial.msim.vcd -direction
$end
$date
	Wed Nov 15 23:20:15 2023
$end
$version
	ModelSim Version 2020.1
$end
$timescale
	1ps
$end

$scope module crcchecker_24bitserial_vhd_vec_tst $end
$var wire 1 ! clk $end
$var wire 1 " dIn $end
$var wire 1 # err $end
$var wire 1 $ nGRst $end

$scope module i1 $end
$var wire 1 % gnd $end
$var wire 1 & vcc $end
$var wire 1 ' unknown $end
$var wire 1 ( devoe $end
$var wire 1 ) devclrn $end
$var wire 1 * devpor $end
$var wire 1 + ww_devoe $end
$var wire 1 , ww_devclrn $end
$var wire 1 - ww_devpor $end
$var wire 1 . ww_nGRst $end
$var wire 1 / ww_clk $end
$var wire 1 0 ww_dIn $end
$var wire 1 1 ww_err $end
$var wire 1 2 \clk~input_o\ $end
$var wire 1 3 \nGRst~input_o\ $end
$var wire 1 4 \dIn~input_o\ $end
$var wire 1 5 \~QUARTUS_CREATED_GND~I_combout\ $end
$upscope $end
$upscope $end
$enddefinitions $end
#0
$dumpvars
0!
1"
1#
0$
0%
1&
x'
1(
1)
1*
1+
1,
1-
0.
0/
10
11
02
03
14
x5
$end
#10000
1!
1/
12
#20000
0!
0"
1$
0/
00
1.
13
04
02
#30000
1!
1/
12
#40000
0!
1"
0/
10
14
02
#50000
1!
1/
12
#60000
0!
0"
0/
00
04
02
#70000
1!
1/
12
#80000
0!
1"
0/
10
14
02
#90000
1!
1/
12
#100000
0!
0"
0/
00
04
02
#110000
1!
1/
12
#120000
0!
1"
0/
10
14
02
#130000
1!
1/
12
#140000
0!
0"
0/
00
04
02
#150000
1!
1/
12
#160000
0!
1"
0/
10
14
02
#170000
1!
1/
12
#180000
0!
0"
0/
00
04
02
#190000
1!
1/
12
#200000
0!
1"
0/
10
14
02
#210000
1!
1/
12
#220000
0!
0"
0/
00
04
02
#230000
1!
1/
12
#240000
0!
1"
0/
10
14
02
#250000
1!
1/
12
#260000
0!
0"
0/
00
04
02
#270000
1!
1/
12
#280000
0!
1"
0/
10
14
02
#290000
1!
1/
12
#300000
0!
0"
0/
00
04
02
#310000
1!
1/
12
#320000
0!
1"
0/
10
14
02
#330000
1!
1/
12
#340000
0!
0/
02
#350000
1!
1/
12
#360000
0!
0/
02
#370000
1!
1/
12
#380000
0!
0"
0/
00
04
02
#390000
1!
1/
12
#400000
0!
1"
0/
10
14
02
#410000
1!
1/
12
#420000
0!
0"
0/
00
04
02
#430000
1!
1/
12
#440000
0!
0/
02
#450000
1!
1/
12
#460000
0!
0/
02
#470000
1!
1/
12
#480000
0!
0/
02
#490000
1!
1/
12
#500000
0!
0/
02
#510000
1!
1/
12
#520000
0!
0/
02
#530000
1!
1/
12
#540000
0!
0/
02
#550000
1!
1/
12
#560000
0!
0/
02
#570000
1!
1/
12
#580000
0!
0/
02
#590000
1!
1/
12
#600000
0!
0/
02
#610000
1!
1/
12
#620000
0!
0/
02
#630000
1!
1/
12
#640000
0!
0/
02
#650000
1!
1/
12
#660000
0!
0/
02
#670000
1!
1/
12
#680000
0!
0/
02
#690000
1!
1/
12
#700000
0!
0/
02
#710000
1!
1/
12
#720000
0!
0/
02
#730000
1!
1/
12
#740000
0!
0/
02
#750000
1!
1/
12
#760000
0!
0/
02
#770000
1!
1/
12
#780000
0!
0/
02
#790000
1!
1/
12
#800000
0!
0/
02
#810000
1!
1/
12
#820000
0!
0/
02
#830000
1!
1/
12
#840000
0!
0/
02
#850000
1!
1/
12
#860000
0!
0/
02
#870000
1!
1/
12
#880000
0!
0/
02
#890000
1!
1/
12
#900000
0!
0/
02
#910000
1!
1/
12
#920000
0!
0/
02
#930000
1!
1/
12
#940000
0!
0/
02
#950000
1!
1/
12
#960000
0!
0/
02
#970000
1!
1/
12
#980000
0!
0/
02
#990000
1!
1/
12
