crcChecker_24bitSerial/simulation/qsim/crcChecker_24bitSerial.msim.vcd
$comment
	File created using the following command:
		vcd file crcChecker_24bitSerial.msim.vcd -direction
$end
$date
	Sat Nov 18 16:06:11 2023
$end
$version
	ModelSim Version 2020.1
$end
$timescale
	1ps
$end

$scope module control_vhd_vec_tst $end
$var wire 1 ! add [4] $end
$var wire 1 " add [3] $end
$var wire 1 # add [2] $end
$var wire 1 $ add [1] $end
$var wire 1 % add [0] $end
$var wire 1 & clk $end
$var wire 1 ' clkO $end
$var wire 1 ( nGRst $end
$var wire 1 ) nRst $end
$var wire 1 * nSetO $end

$scope module i1 $end
$var wire 1 + gnd $end
$var wire 1 , vcc $end
$var wire 1 - unknown $end
$var wire 1 . devoe $end
$var wire 1 / devclrn $end
$var wire 1 0 devpor $end
$var wire 1 1 ww_devoe $end
$var wire 1 2 ww_devclrn $end
$var wire 1 3 ww_devpor $end
$var wire 1 4 ww_nGRst $end
$var wire 1 5 ww_clk $end
$var wire 1 6 ww_add [4] $end
$var wire 1 7 ww_add [3] $end
$var wire 1 8 ww_add [2] $end
$var wire 1 9 ww_add [1] $end
$var wire 1 : ww_add [0] $end
$var wire 1 ; ww_nRst $end
$var wire 1 < ww_nSetO $end
$var wire 1 = ww_clkO $end
$var wire 1 > \~QUARTUS_CREATED_GND~I_combout\ $end
$var wire 1 ? \add[0]~input_o\ $end
$var wire 1 @ \clk~input_o\ $end
$var wire 1 A \nGRst~input_o\ $end
$var wire 1 B \add[3]~input_o\ $end
$var wire 1 C \add[2]~input_o\ $end
$var wire 1 D \add[1]~input_o\ $end
$var wire 1 E \add[4]~input_o\ $end
$var wire 1 F \nad2|y~0_combout\ $end
$var wire 1 G \nad2|y~1_combout\ $end
$var wire 1 H \nad4|y~0_combout\ $end
$var wire 1 I \nad4|y~1_combout\ $end
$var wire 1 J \nord|y~0_combout\ $end
$var wire 1 K \ALT_INV_nGRst~input_o\ $end
$var wire 1 L \ALT_INV_add[2]~input_o\ $end
$var wire 1 M \ALT_INV_add[1]~input_o\ $end
$var wire 1 N \ALT_INV_add[4]~input_o\ $end
$var wire 1 O \ALT_INV_add[3]~input_o\ $end
$var wire 1 P \ALT_INV_add[0]~input_o\ $end
$var wire 1 Q \ALT_INV_clk~input_o\ $end
$var wire 1 R \nord|ALT_INV_y~0_combout\ $end
$var wire 1 S \nad4|ALT_INV_y~1_combout\ $end
$var wire 1 T \nad4|ALT_INV_y~0_combout\ $end
$var wire 1 U \nad2|ALT_INV_y~1_combout\ $end
$var wire 1 V \nad2|ALT_INV_y~0_combout\ $end
$upscope $end
$upscope $end
$enddefinitions $end
#0
$dumpvars
0&
0'
0(
1)
1*
0+
1,
x-
1.
1/
10
11
12
13
04
05
1;
1<
0=
x>
0?
0@
0A
0B
0C
0D
0E
0F
0G
0H
0I
1J
1K
1L
1M
1N
1O
1P
1Q
0R
1S
1T
1U
1V
0!
0"
0#
0$
0%
06
07
08
09
0:
$end
#10000
1%
1&
1:
15
1@
1?
0P
0Q
1I
1G
1H
0T
0U
0S
0<
0;
0*
0)
#20000
0%
0&
1$
1(
0:
19
05
14
1A
0@
1D
0?
1P
0M
1Q
0K
0I
0G
0H
1T
1U
1S
1<
1;
1*
1)
#30000
1%
1&
1:
15
1@
1?
0P
0Q
1H
0T
#40000
0%
0&
0$
1#
0:
09
18
05
0@
1C
0D
0?
1P
1M
0L
1Q
0H
1T
#50000
1%
1&
1:
15
1@
1?
0P
0Q
1H
0T
#60000
0%
0&
1$
0:
19
05
0@
1D
0?
1P
0M
1Q
0H
1T
#70000
1%
1&
1:
15
1@
1?
0P
0Q
1H
0T
#80000
0%
0&
0$
0#
1"
0:
09
08
17
05
0@
1B
0C
0D
0?
1P
1M
1L
0O
1Q
1I
0H
1T
0S
0I
1S
0<
0*
1<
1*
#90000
1%
1&
1:
15
1@
1?
0P
0Q
#100000
0%
0&
1$
0:
19
05
0@
1D
0?
1P
0M
1Q
#110000
1%
1&
1:
15
1@
1?
0P
0Q
#120000
0%
0&
0$
1#
0:
09
18
05
0@
1C
0D
0?
1P
1M
0L
1Q
#130000
1%
1&
1:
15
1@
1?
0P
0Q
#140000
0%
0&
1$
0:
19
05
0@
1D
0?
1P
0M
1Q
#150000
1%
1&
1:
15
1@
1?
0P
0Q
#160000
0%
0&
0$
0#
0"
1!
0:
09
08
07
16
05
0@
1E
0B
0C
0D
0?
1P
1M
1L
1O
0N
1Q
#170000
1%
1&
1:
15
1@
1?
0P
0Q
#180000
0%
0&
1$
0:
19
05
0@
1D
0?
1P
0M
1Q
#190000
1%
1&
1:
15
1@
1?
0P
0Q
#200000
0%
0&
0$
1#
0:
09
18
05
0@
1C
0D
0?
1P
1M
0L
1Q
#210000
1%
1&
1:
15
1@
1?
0P
0Q
#220000
0%
0&
1$
0:
19
05
0@
1D
0?
1P
0M
1Q
#230000
1%
1&
1:
15
1@
1?
0P
0Q
#240000
0%
0&
0$
0#
1"
0:
09
08
17
05
0@
1B
0C
0D
0?
1P
1M
1L
0O
1Q
1F
0J
1R
0V
1=
1'
#250000
1%
1&
1:
15
1@
1?
0P
0Q
1G
1J
0R
0U
0;
0=
0)
0'
#260000
0%
0&
1$
0:
19
05
0@
1D
0?
1P
0M
1Q
0F
0G
1U
1V
1;
1)
#270000
1%
1&
1:
15
1@
1?
0P
0Q
#280000
0%
0&
0$
1#
0:
09
18
05
0@
1C
0D
0?
1P
1M
0L
1Q
#290000
1%
1&
1:
15
1@
1?
0P
0Q
#300000
0%
0&
1$
0:
19
05
0@
1D
0?
1P
0M
1Q
#310000
1%
1&
1:
15
1@
1?
0P
0Q
#320000
0%
0&
0$
0#
0"
0!
0:
09
08
07
06
05
0@
0E
0B
0C
0D
0?
1P
1M
1L
1O
1N
1Q
#330000
1%
1&
1:
15
1@
1?
0P
0Q
1H
0T
1I
0S
0<
0*
#340000
0%
0&
1$
0:
19
05
0@
1D
0?
1P
0M
1Q
0I
0H
1T
1S
1<
1*
#350000
1%
1&
1:
15
1@
1?
0P
0Q
1H
0T
#360000
0%
0&
0$
1#
0:
09
18
05
0@
1C
0D
0?
1P
1M
0L
1Q
0H
1T
#370000
1%
1&
1:
15
1@
1?
0P
0Q
1H
0T
#380000
0%
0&
1$
0:
19
05
0@
1D
0?
1P
0M
1Q
0H
1T
#390000
1%
1&
1:
15
1@
1?
0P
0Q
1H
0T
#400000
0%
0&
0$
0#
1"
0:
09
08
17
05
0@
1B
0C
0D
0?
1P
1M
1L
0O
1Q
1I
0H
1T
0S
0I
1S
0<
0*
1<
1*
#410000
1%
1&
1:
15
1@
1?
0P
0Q
#420000
0%
0&
1$
0:
19
05
0@
1D
0?
1P
0M
1Q
#430000
1%
1&
1:
15
1@
1?
0P
0Q
#440000
0%
0&
0$
1#
0:
09
18
05
0@
1C
0D
0?
1P
1M
0L
1Q
#450000
1%
1&
1:
15
1@
1?
0P
0Q
#460000
0%
0&
1$
0:
19
05
0@
1D
0?
1P
0M
1Q
#470000
1%
1&
1:
15
1@
1?
0P
0Q
#480000
0%
0&
0$
0#
0"
1!
0:
09
08
07
16
05
0@
1E
0B
0C
0D
0?
1P
1M
1L
1O
0N
1Q
#490000
1%
1&
1:
15
1@
1?
0P
0Q
#500000
0%
0&
1$
0:
19
05
0@
1D
0?
1P
0M
1Q
#510000
1%
1&
1:
15
1@
1?
0P
0Q
#520000
0%
0&
0$
1#
0:
09
18
05
0@
1C
0D
0?
1P
1M
0L
1Q
#530000
1%
1&
1:
15
1@
1?
0P
0Q
#540000
0%
0&
1$
0:
19
05
0@
1D
0?
1P
0M
1Q
#550000
1%
1&
1:
15
1@
1?
0P
0Q
#560000
0%
0&
0$
0#
1"
0:
09
08
17
05
0@
1B
0C
0D
0?
1P
1M
1L
0O
1Q
1F
0J
1R
0V
1=
1'
#570000
1%
1&
1:
15
1@
1?
0P
0Q
1G
1J
0R
0U
0;
0=
0)
0'
#580000
0%
0&
1$
0:
19
05
0@
1D
0?
1P
0M
1Q
0F
0G
1U
1V
1;
1)
#590000
1%
1&
1:
15
1@
1?
0P
0Q
#600000
0%
0&
0$
1#
0:
09
18
05
0@
1C
0D
0?
1P
1M
0L
1Q
#610000
1%
1&
1:
15
1@
1?
0P
0Q
#620000
0%
0&
1$
0:
19
05
0@
1D
0?
1P
0M
1Q
#630000
1%
1&
1:
15
1@
1?
0P
0Q
#640000
0%
0&
0$
0#
0"
0!
0:
09
08
07
06
05
0@
0E
0B
0C
0D
0?
1P
1M
1L
1O
1N
1Q
#650000
1%
1&
1:
15
1@
1?
0P
0Q
1H
0T
1I
0S
0<
0*
#660000
0%
0&
1$
0:
19
05
0@
1D
0?
1P
0M
1Q
0I
0H
1T
1S
1<
1*
#670000
1%
1&
1:
15
1@
1?
0P
0Q
1H
0T
#680000
0%
0&
0$
1#
0:
09
18
05
0@
1C
0D
0?
1P
1M
0L
1Q
0H
1T
#690000
1%
1&
1:
15
1@
1?
0P
0Q
1H
0T
#700000
0%
0&
1$
0:
19
05
0@
1D
0?
1P
0M
1Q
0H
1T
#710000
1%
1&
1:
15
1@
1?
0P
0Q
1H
0T
#720000
0%
0&
0$
0#
1"
0:
09
08
17
05
0@
1B
0C
0D
0?
1P
1M
1L
0O
1Q
1I
0H
1T
0S
0I
1S
0<
0*
1<
1*
#730000
1%
1&
1:
15
1@
1?
0P
0Q
#740000
0%
0&
1$
0:
19
05
0@
1D
0?
1P
0M
1Q
#750000
1%
1&
1:
15
1@
1?
0P
0Q
#760000
0%
0&
0$
1#
0:
09
18
05
0@
1C
0D
0?
1P
1M
0L
1Q
#770000
1%
1&
1:
15
1@
1?
0P
0Q
#780000
0%
0&
1$
0:
19
05
0@
1D
0?
1P
0M
1Q
#790000
1%
1&
1:
15
1@
1?
0P
0Q
#800000
0%
0&
0$
0#
0"
1!
0:
09
08
07
16
05
0@
1E
0B
0C
0D
0?
1P
1M
1L
1O
0N
1Q
#810000
1%
1&
1:
15
1@
1?
0P
0Q
#820000
0%
0&
1$
0:
19
05
0@
1D
0?
1P
0M
1Q
#830000
1%
1&
1:
15
1@
1?
0P
0Q
#840000
0%
0&
0$
1#
0:
09
18
05
0@
1C
0D
0?
1P
1M
0L
1Q
#850000
1%
1&
1:
15
1@
1?
0P
0Q
#860000
0%
0&
1$
0:
19
05
0@
1D
0?
1P
0M
1Q
#870000
1%
1&
1:
15
1@
1?
0P
0Q
#880000
0%
0&
0$
0#
1"
0:
09
08
17
05
0@
1B
0C
0D
0?
1P
1M
1L
0O
1Q
1F
0J
1R
0V
1=
1'
#890000
1%
1&
1:
15
1@
1?
0P
0Q
1G
1J
0R
0U
0;
0=
0)
0'
#900000
0%
0&
1$
0:
19
05
0@
1D
0?
1P
0M
1Q
0F
0G
1U
1V
1;
1)
#910000
1%
1&
1:
15
1@
1?
0P
0Q
#920000
0%
0&
0$
1#
0:
09
18
05
0@
1C
0D
0?
1P
1M
0L
1Q
#930000
1%
1&
1:
15
1@
1?
0P
0Q
#940000
0%
0&
1$
0:
19
05
0@
1D
0?
1P
0M
1Q
#950000
1%
1&
1:
15
1@
1?
0P
0Q
#960000
0%
0&
0$
0#
0"
0!
0:
09
08
07
06
05
0@
0E
0B
0C
0D
0?
1P
1M
1L
1O
1N
1Q
#970000
1%
1&
1:
15
1@
1?
0P
0Q
1H
0T
1I
0S
0<
0*
#980000
0%
0&
1$
0:
19
05
0@
1D
0?
1P
0M
1Q
0I
0H
1T
1S
1<
1*
#990000
1%
1&
1:
15
1@
1?
0P
0Q
1H
0T
