crcChecker_24bitSerial/simulation/qsim/crcChecker_24bitSerial.msim.vcd
$comment
	File created using the following command:
		vcd file crcChecker_24bitSerial.msim.vcd -direction
$end
$date
	Sat Nov 18 13:07:05 2023
$end
$version
	ModelSim Version 2020.1
$end
$timescale
	1ps
$end

$scope module crcchecker_24bitserial_vhd_vec_tst $end
$var wire 1 ! clk $end
$var wire 1 " dIn $end
$var wire 1 # err $end
$var wire 1 $ nGRst $end

$scope module i1 $end
$var wire 1 % gnd $end
$var wire 1 & vcc $end
$var wire 1 ' unknown $end
$var wire 1 ( devoe $end
$var wire 1 ) devclrn $end
$var wire 1 * devpor $end
$var wire 1 + ww_devoe $end
$var wire 1 , ww_devclrn $end
$var wire 1 - ww_devpor $end
$var wire 1 . ww_nGRst $end
$var wire 1 / ww_clk $end
$var wire 1 0 ww_dIn $end
$var wire 1 1 ww_err $end
$var wire 1 2 \~QUARTUS_CREATED_GND~I_combout\ $end
$var wire 1 3 \clk~input_o\ $end
$var wire 1 4 \clk~inputCLKENA0_outclk\ $end
$var wire 1 5 \bc|ff0|Q~0_combout\ $end
$var wire 1 6 \nGRst~input_o\ $end
$var wire 1 7 \bc|ff1|Q~0_combout\ $end
$var wire 1 8 \bc|ff1|Q~q\ $end
$var wire 1 9 \bc|ff2|Q~0_combout\ $end
$var wire 1 : \bc|ff2|Q~q\ $end
$var wire 1 ; \bc|ff3|Q~0_combout\ $end
$var wire 1 < \bc|ff3|Q~q\ $end
$var wire 1 = \con|nad2|y~0_combout\ $end
$var wire 1 > \con|nad2|y~1_combout\ $end
$var wire 1 ? \bc|ff0|Q~q\ $end
$var wire 1 @ \bc|ff4|Q~0_combout\ $end
$var wire 1 A \bc|ff4|Q~q\ $end
$var wire 1 B \con|nord|y~0_combout\ $end
$var wire 1 C \lsfr|ff7|Q~q\ $end
$var wire 1 D \lsfr|ff6|Q~q\ $end
$var wire 1 E \lsfr|ff7|Q~0_combout\ $end
$var wire 1 F \lsfr|ff7|Q~DUPLICATE_q\ $end
$var wire 1 G \dIn~input_o\ $end
$var wire 1 H \lsfr|xor0|y~combout\ $end
$var wire 1 I \lsfr|ff0|Q~q\ $end
$var wire 1 J \lsfr|xor1|y~combout\ $end
$var wire 1 K \lsfr|ff1|Q~DUPLICATE_q\ $end
$var wire 1 L \lsfr|xor2|y~combout\ $end
$var wire 1 M \lsfr|ff2|Q~DUPLICATE_q\ $end
$var wire 1 N \lsfr|ff3|Q~DUPLICATE_q\ $end
$var wire 1 O \lsfr|ff4|Q~q\ $end
$var wire 1 P \lsfr|xor3|y~combout\ $end
$var wire 1 Q \lsfr|ff5|Q~q\ $end
$var wire 1 R \lsfr|ff2|Q~q\ $end
$var wire 1 S \lsfr|ff1|Q~q\ $end
$var wire 1 T \lsfr|ff3|Q~q\ $end
$var wire 1 U \comp|or7|y~0_combout\ $end
$var wire 1 V \comp|or7|y~combout\ $end
$var wire 1 W \con|nad4|y~0_combout\ $end
$var wire 1 X \ffP|Q~q\ $end
$var wire 1 Y \lsfr|ff1|ALT_INV_Q~DUPLICATE_q\ $end
$var wire 1 Z \lsfr|ff7|ALT_INV_Q~DUPLICATE_q\ $end
$var wire 1 [ \ALT_INV_dIn~input_o\ $end
$var wire 1 \ \ALT_INV_nGRst~input_o\ $end
$var wire 1 ] \ALT_INV_clk~input_o\ $end
$var wire 1 ^ \con|nad2|ALT_INV_y~1_combout\ $end
$var wire 1 _ \con|nad4|ALT_INV_y~0_combout\ $end
$var wire 1 ` \bc|ff0|ALT_INV_Q~q\ $end
$var wire 1 a \bc|ff4|ALT_INV_Q~q\ $end
$var wire 1 b \bc|ff3|ALT_INV_Q~q\ $end
$var wire 1 c \con|nad2|ALT_INV_y~0_combout\ $end
$var wire 1 d \bc|ff2|ALT_INV_Q~q\ $end
$var wire 1 e \bc|ff1|ALT_INV_Q~q\ $end
$var wire 1 f \comp|or7|ALT_INV_y~0_combout\ $end
$var wire 1 g \lsfr|ff3|ALT_INV_Q~q\ $end
$var wire 1 h \lsfr|ff2|ALT_INV_Q~q\ $end
$var wire 1 i \lsfr|ff1|ALT_INV_Q~q\ $end
$var wire 1 j \lsfr|ff0|ALT_INV_Q~q\ $end
$var wire 1 k \lsfr|ff7|ALT_INV_Q~q\ $end
$var wire 1 l \lsfr|ff6|ALT_INV_Q~q\ $end
$var wire 1 m \lsfr|ff5|ALT_INV_Q~q\ $end
$var wire 1 n \lsfr|ff4|ALT_INV_Q~q\ $end
$var wire 1 o \ffP|ALT_INV_Q~q\ $end
$upscope $end
$upscope $end
$enddefinitions $end
#0
$dumpvars
0!
0"
1#
0$
0%
1&
x'
1(
1)
1*
1+
1,
1-
0.
0/
00
11
x2
03
04
15
06
07
08
09
0:
0;
0<
1=
0>
0?
0@
0A
0B
0C
0D
0E
0F
0G
0H
0I
0J
0K
0L
0M
0N
0O
0P
0Q
0R
0S
0T
1U
1V
0W
0X
1Y
1Z
1[
1\
1]
1^
1_
1`
1a
1b
0c
1d
1e
0f
1g
1h
1i
1j
1k
1l
1m
1n
1o
$end
#10000
1!
1/
13
14
0]
1>
1W
1?
0`
0_
0^
0?
05
17
1`
15
07
#20000
0!
1$
1"
0/
1.
10
1G
16
03
04
1]
0\
0[
1H
0>
0W
1_
1^
#30000
1!
1/
13
14
0]
1?
1I
0j
0`
05
17
1W
1J
0U
1f
0_
0V
#40000
0!
0"
0/
00
0G
03
04
1]
1[
0H
0W
1_
#50000
1!
1/
13
14
0]
1W
18
0?
0I
1K
1S
0i
0Y
1j
1`
0e
0_
0=
15
0W
0J
1L
1_
1c
#60000
0!
1"
0/
10
1G
03
04
1]
0[
1H
#70000
1!
1/
13
14
0]
1?
1I
0K
1M
1R
0S
1i
0h
1Y
0j
0`
05
07
19
1J
0L
#80000
0!
0"
0/
00
0G
03
04
1]
1[
0H
#90000
1!
1/
13
14
0]
08
1:
0?
0I
1K
0M
1N
0R
1S
1T
0g
0i
1h
0Y
1j
1`
0d
1e
15
0J
1L
#100000
0!
1"
0/
10
1G
03
04
1]
0[
1H
#110000
1!
1/
13
14
0]
1?
1I
0K
1M
0N
1O
1R
0S
0T
1g
1i
0h
0n
1Y
0j
0`
05
17
1J
0L
1P
#120000
0!
0"
0/
00
0G
03
04
1]
1[
0H
#130000
1!
1/
13
14
0]
18
0?
0I
1K
0M
1N
0O
1Q
0R
1S
1T
0g
0i
1h
0m
1n
0Y
1j
1`
0e
15
0J
1L
0P
#140000
0!
1"
0/
10
1G
03
04
1]
0[
1H
#150000
1!
1/
13
14
0]
1?
1D
1I
0K
1M
0N
1O
0Q
1R
0S
0T
1g
1i
0h
1m
0n
1Y
0j
0l
0`
05
07
09
1;
1E
1J
0L
1P
#160000
0!
0"
0/
00
0G
03
04
1]
1[
0H
#170000
1!
1/
13
14
0]
08
0:
1<
0?
1C
0D
1F
0I
1K
0M
1N
0O
1Q
0R
1S
1T
0g
0i
1h
0m
1n
0Y
1j
0Z
1l
0k
1`
0b
1d
1e
1=
15
1H
0c
#180000
0!
1"
0/
10
1G
03
04
1]
0[
0H
#190000
1!
1/
13
14
0]
1?
1D
0N
1O
0T
1g
0n
0l
0`
05
17
0E
0P
#200000
0!
0"
0/
00
0G
03
04
1]
1[
1H
#210000
1!
1/
13
14
0]
18
0?
0C
0F
1I
0O
0Q
1m
1n
0j
1Z
1k
1`
0e
0=
15
1E
0H
1L
1c
#220000
0!
1"
0/
10
1G
03
04
1]
0[
1H
#230000
1!
1/
13
14
0]
1?
1C
0D
1F
1M
1R
0h
0Z
1l
0k
0`
05
07
19
0J
0H
0L
1P
#240000
0!
0"
0/
00
0G
03
04
1]
1[
1H
#250000
1!
1/
13
14
0]
08
1:
0?
0K
0M
1N
1Q
0R
0S
1T
0g
1i
1h
0m
1Y
1`
0d
1e
15
1L
#260000
0!
1"
0/
10
1G
03
04
1]
0[
0H
#270000
1!
1/
13
14
0]
1?
1D
0I
1M
0N
1O
1R
0T
1g
0h
0n
1j
0l
0`
05
17
0E
1J
0P
#280000
0!
0"
0/
00
0G
03
04
1]
1[
1H
#290000
1!
1/
13
14
0]
18
0?
0C
0F
1I
1K
1N
0O
0Q
1S
1T
0g
0i
1m
1n
0Y
0j
1Z
1k
1`
0e
15
1E
0H
#300000
0!
1"
0/
10
1G
03
04
1]
0[
1H
#310000
1!
1/
13
14
0]
1?
1C
0D
1F
1O
0n
0Z
1l
0k
0`
05
07
09
0;
1@
0J
0H
0L
#320000
0!
0"
0/
00
0G
03
04
1]
1[
1H
#330000
1!
1/
13
14
0]
08
0:
0<
0?
1A
0K
0M
0R
0S
1i
1h
1Y
0a
1`
1b
1d
1e
1=
15
1L
0c
#340000
0!
1"
0/
10
1G
03
04
1]
0[
0H
#350000
1!
1/
13
14
0]
1?
0I
1M
0N
1R
0T
1g
0h
1j
0`
05
17
1J
#360000
0!
0/
03
04
1]
#370000
1!
1/
13
14
0]
18
0?
1K
1N
0O
1S
1T
0g
0i
1n
0Y
1`
0e
0=
15
0L
1P
1c
#380000
0!
0/
03
04
1]
#390000
1!
1/
13
14
0]
1?
0M
1O
1Q
0R
1h
0m
0n
0`
05
07
19
0P
#400000
0!
0"
0/
00
0G
03
04
1]
1[
1H
#410000
1!
1/
13
14
0]
08
1:
0?
1D
1I
0N
0Q
0T
1g
1m
0j
0l
1`
0d
1e
15
0E
0J
#420000
0!
1"
0/
10
1G
03
04
1]
0[
0H
#430000
1!
1/
13
14
0]
1?
0C
0D
0F
0I
0K
0O
0S
1i
1n
1Y
1j
1Z
1l
1k
0`
05
17
1H
1U
0f
1V
#440000
0!
0"
0/
00
0G
03
04
1]
1[
0H
#450000
1!
1/
13
14
0]
18
0?
1`
0e
15
#460000
0!
0/
03
04
1]
#470000
1!
1/
13
14
0]
1?
0`
05
07
09
1;
#480000
0!
0/
03
04
1]
#490000
1!
1/
13
14
0]
08
0:
1<
0?
1`
0b
1d
1e
1=
15
0c
#500000
0!
0/
03
04
1]
1B
1X
0o
01
0#
#510000
1!
1/
13
14
0]
0B
1?
0`
05
17
1>
0^
0<
0?
0A
1a
1`
1b
15
07
0;
0>
0@
1^
#520000
0!
1"
0/
10
1G
03
04
1]
0[
1H
#530000
1!
1/
13
14
0]
1?
1I
0j
0`
05
17
1W
1J
0U
1f
0_
0X
0V
1o
11
1#
#540000
0!
0"
0/
00
0G
03
04
1]
1[
0H
0W
1_
#550000
1!
1/
13
14
0]
1W
18
0?
0I
1K
1S
0i
0Y
1j
1`
0e
0_
0=
15
0W
0J
1L
1_
1c
#560000
0!
0/
03
04
1]
#570000
1!
1/
13
14
0]
1?
0K
1M
1R
0S
1i
0h
1Y
0`
05
07
19
0L
#580000
0!
1"
0/
10
1G
03
04
1]
0[
1H
#590000
1!
1/
13
14
0]
08
1:
0?
1I
0M
1N
0R
1T
0g
1h
0j
1`
0d
1e
15
1J
#600000
0!
0/
03
04
1]
#610000
1!
1/
13
14
0]
1?
1K
0N
1O
1S
0T
1g
0i
0n
0Y
0`
05
17
1L
1P
#620000
0!
0/
03
04
1]
#630000
1!
1/
13
14
0]
18
0?
1M
0O
1Q
1R
0h
0m
1n
1`
0e
15
0P
#640000
0!
0/
03
04
1]
#650000
1!
1/
13
14
0]
1?
1D
1N
0Q
1T
0g
1m
0l
0`
05
07
09
1;
1E
#660000
0!
0"
0/
00
0G
03
04
1]
1[
0H
#670000
1!
1/
13
14
0]
08
0:
1<
0?
1C
0D
1F
0I
1O
0n
1j
0Z
1l
0k
1`
0b
1d
1e
1=
15
1H
0L
0c
#680000
0!
1"
0/
10
1G
03
04
1]
0[
0H
#690000
1!
1/
13
14
0]
1?
0M
0R
1h
0`
05
17
#700000
0!
0"
0/
00
0G
03
04
1]
1[
1H
#710000
1!
1/
13
14
0]
18
0?
1I
0N
0T
1g
0j
1`
0e
0=
15
0J
1c
#720000
0!
0/
03
04
1]
#730000
1!
1/
13
14
0]
1?
0K
0O
0S
1i
1n
1Y
0`
05
07
19
1L
1P
#740000
0!
1"
0/
10
1G
03
04
1]
0[
0H
#750000
1!
1/
13
14
0]
08
1:
0?
0I
1M
1Q
1R
0h
0m
1j
1`
0d
1e
15
1J
#760000
0!
0"
0/
00
0G
03
04
1]
1[
1H
#770000
1!
1/
13
14
0]
1?
1D
1I
1K
1N
1S
1T
0g
0i
0Y
0j
0l
0`
05
17
0E
0J
0L
#780000
0!
1"
0/
10
1G
03
04
1]
0[
0H
#790000
1!
1/
13
14
0]
18
0?
0C
0F
0I
0K
0M
1O
0R
0S
1i
1h
0n
1Y
1j
1Z
1k
1`
0e
15
1E
1H
#800000
0!
0/
03
04
1]
#810000
1!
1/
13
14
0]
1?
1C
1F
1I
0N
0T
1g
0j
0Z
0k
0`
05
07
09
0;
1@
0E
0H
1L
0P
#820000
0!
0/
03
04
1]
#830000
1!
1/
13
14
0]
08
0:
0<
0?
1A
0C
0F
0I
1M
0O
0Q
1R
0h
1m
1n
1j
1Z
1k
0a
1`
1b
1d
1e
1=
15
1E
1H
0L
0c
#840000
0!
0"
0/
00
0G
03
04
1]
1[
0H
#850000
1!
1/
13
14
0]
1?
1C
0D
1F
0M
1N
0R
1T
0g
1h
0Z
1l
0k
0`
05
17
1J
1H
1L
1P
#860000
0!
0/
03
04
1]
#870000
1!
1/
13
14
0]
18
0?
1I
1K
1M
0N
1O
1Q
1R
1S
0T
1g
0i
0h
0m
0n
0Y
0j
1`
0e
0=
15
0J
0L
0P
1c
#880000
0!
0/
03
04
1]
#890000
1!
1/
13
14
0]
1?
1D
0K
0M
1N
0O
0Q
0R
0S
1T
0g
1i
1h
1m
1n
1Y
0l
0`
05
07
19
0E
1L
1P
#900000
0!
1"
0/
10
1G
03
04
1]
0[
0H
#910000
1!
1/
13
14
0]
08
1:
0?
0C
0D
0F
0I
1M
0N
1O
1Q
1R
0T
1g
0h
0m
0n
1j
1Z
1l
1k
1`
0d
1e
15
1H
0L
#920000
0!
0/
03
04
1]
#930000
1!
1/
13
14
0]
1?
1D
1I
0M
1N
0O
0R
1T
0g
1h
1n
0j
0l
0`
05
17
1E
1J
0P
#940000
0!
0/
03
04
1]
#950000
1!
1/
13
14
0]
18
0?
1C
1F
1K
0N
1O
0Q
1S
0T
1g
0i
1m
0n
0Y
0Z
0k
1`
0e
15
0E
0J
0H
#960000
0!
0/
03
04
1]
#970000
1!
1/
13
14
0]
1?
0C
0D
0F
0I
0K
0O
0S
1i
1n
1Y
1j
1Z
1l
1k
0`
05
07
09
1;
1H
1U
0f
1V
#980000
0!
0"
0/
00
0G
03
04
1]
1[
0H
#990000
1!
1/
13
14
0]
08
0:
1<
0?
1`
0b
1d
1e
1=
15
0c
#1000000
0!
0/
03
04
1]
1B
1X
0o
01
0#
#1010000
1!
1/
13
14
0]
0B
1?
0`
05
17
1>
0^
0<
0?
0A
1a
1`
1b
15
07
0;
0>
0@
1^
#1020000
0!
1"
0/
10
1G
03
04
1]
0[
1H
#1030000
1!
1/
13
14
0]
1?
1I
0j
0`
05
17
1W
1J
0U
1f
0_
0X
0V
1o
11
1#
#1040000
0!
0"
0/
00
0G
03
04
1]
1[
0H
0W
1_
#1050000
1!
1/
13
14
0]
1W
18
0?
0I
1K
1S
0i
0Y
1j
1`
0e
0_
0=
15
0W
0J
1L
1_
1c
#1060000
0!
1"
0/
10
1G
03
04
1]
0[
1H
#1070000
1!
1/
13
14
0]
1?
1I
0K
1M
1R
0S
1i
0h
1Y
0j
0`
05
07
19
1J
0L
#1080000
0!
0"
0/
00
0G
03
04
1]
1[
0H
#1090000
1!
1/
13
14
0]
08
1:
0?
0I
1K
0M
1N
0R
1S
1T
0g
0i
1h
0Y
1j
1`
0d
1e
15
0J
1L
#1100000
0!
1"
0/
10
1G
03
04
1]
0[
1H
#1110000
1!
1/
13
14
0]
1?
1I
0K
1M
0N
1O
1R
0S
0T
1g
1i
0h
0n
1Y
0j
0`
05
17
1J
0L
1P
#1120000
0!
0"
0/
00
0G
03
04
1]
1[
0H
#1130000
1!
1/
13
14
0]
18
0?
0I
1K
0M
1N
0O
1Q
0R
1S
1T
0g
0i
1h
0m
1n
0Y
1j
1`
0e
15
0J
1L
0P
#1140000
0!
1"
0/
10
1G
03
04
1]
0[
1H
#1150000
1!
1/
13
14
0]
1?
1D
1I
0K
1M
0N
1O
0Q
1R
0S
0T
1g
1i
0h
1m
0n
1Y
0j
0l
0`
05
07
09
1;
1E
1J
0L
1P
#1160000
0!
0"
0/
00
0G
03
04
1]
1[
0H
#1170000
1!
1/
13
14
0]
08
0:
1<
0?
1C
0D
1F
0I
1K
0M
1N
0O
1Q
0R
1S
1T
0g
0i
1h
0m
1n
0Y
1j
0Z
1l
0k
1`
0b
1d
1e
1=
15
1H
0c
#1180000
0!
1"
0/
10
1G
03
04
1]
0[
0H
#1190000
1!
1/
13
14
0]
1?
1D
0N
1O
0T
1g
0n
0l
0`
05
17
0E
0P
#1200000
0!
0"
0/
00
0G
03
04
1]
1[
1H
#1210000
1!
1/
13
14
0]
18
0?
0C
0F
1I
0O
0Q
1m
1n
0j
1Z
1k
1`
0e
0=
15
1E
0H
1L
1c
#1220000
0!
0/
03
04
1]
#1230000
1!
1/
13
14
0]
1?
1C
0D
1F
0I
1M
1R
0h
1j
0Z
1l
0k
0`
05
07
19
1H
0L
1P
#1240000
0!
0/
03
04
1]
#1250000
1!
1/
13
14
0]
08
1:
0?
1I
0M
1N
1Q
0R
1T
0g
1h
0m
0j
1`
0d
1e
15
0J
#1260000
0!
1"
0/
10
1G
03
04
1]
0[
0H
#1270000
1!
1/
13
14
0]
1?
1D
0I
0K
0N
1O
0S
0T
1g
1i
0n
1Y
1j
0l
0`
05
17
0E
1J
1L
0P
1U
0f
#1280000
0!
0"
0/
00
0G
03
04
1]
1[
1H
#1290000
1!
1/
13
14
0]
18
0?
0C
0F
1I
1K
1M
0O
0Q
1R
1S
0i
0h
1m
1n
0Y
0j
1Z
1k
1`
0e
15
1E
0H
0U
1f
#1300000
0!
1"
0/
10
1G
03
04
1]
0[
1H
#1310000
1!
1/
13
14
0]
1?
1C
0D
1F
1N
1T
0g
0Z
1l
0k
0`
05
07
09
0;
1@
0J
0H
0L
1P
#1320000
0!
0"
0/
00
0G
03
04
1]
1[
1H
#1330000
1!
1/
13
14
0]
08
0:
0<
0?
1A
0K
0M
1O
1Q
0R
0S
1i
1h
0m
0n
1Y
0a
1`
1b
1d
1e
1=
15
1L
0P
0c
#1340000
0!
1"
0/
10
1G
03
04
1]
0[
0H
#1350000
1!
1/
13
14
0]
1?
1D
0I
1M
0N
0Q
1R
0T
1g
0h
1m
1j
0l
0`
05
17
0E
1J
#1360000
0!
0/
03
04
1]
#1370000
1!
1/
13
14
0]
18
0?
0C
0D
0F
1K
1N
0O
1S
1T
0g
0i
1n
0Y
1Z
1l
1k
1`
0e
0=
15
0J
1H
1c
#1380000
0!
0/
03
04
1]
#1390000
1!
1/
13
14
0]
1?
1I
0K
1O
0S
1i
0n
1Y
0j
0`
05
07
19
1J
0L
1P
#1400000
0!
0"
0/
00
0G
03
04
1]
1[
0H
#1410000
1!
1/
13
14
0]
08
1:
0?
0I
1K
0M
1Q
0R
1S
0i
1h
0m
0Y
1j
1`
0d
1e
15
0J
1L
#1420000
0!
1"
0/
10
1G
03
04
1]
0[
1H
#1430000
1!
1/
13
14
0]
1?
1D
1I
0K
1M
0N
1R
0S
0T
1g
1i
0h
1Y
0j
0l
0`
05
17
1E
1J
0L
#1440000
0!
0"
0/
00
0G
03
04
1]
1[
0H
#1450000
1!
1/
13
14
0]
18
0?
1C
1F
0I
1K
0M
1N
0O
0R
1S
1T
0g
0i
1h
1n
0Y
1j
0Z
0k
1`
0e
15
0E
1H
#1460000
0!
0/
03
04
1]
#1470000
1!
1/
13
14
0]
1?
0C
0F
1I
0N
1O
0T
1g
0n
0j
1Z
1k
0`
05
07
09
1;
1E
0H
1L
#1480000
0!
0/
03
04
1]
#1490000
1!
1/
13
14
0]
08
0:
1<
0?
1C
1F
0I
1M
0O
1R
0h
1n
1j
0Z
0k
1`
0b
1d
1e
1=
15
0E
1H
0L
0c
#1500000
0!
0/
03
04
1]
1B
#1510000
1!
1/
13
14
0]
0B
1?
0C
0F
1I
0M
1N
0R
1T
0g
1h
0j
1Z
1k
0`
05
17
1>
1E
0H
1L
0P
0^
0<
0?
0A
0D
0I
0K
0N
0Q
0S
0T
1g
1i
1m
1Y
1j
1l
1a
1`
1b
15
07
0;
0>
0@
0E
0J
0L
1U
0f
1^
1V
#1520000
0!
0/
03
04
1]
#1530000
1!
1/
13
14
0]
1?
0`
05
17
1W
0_
#1540000
0!
0/
03
04
1]
0W
1_
#1550000
1!
1/
13
14
0]
1W
18
0?
1`
0e
0_
0=
15
0W
1_
1c
#1560000
0!
0/
03
04
1]
#1570000
1!
1/
13
14
0]
1?
0`
05
07
19
#1580000
0!
0/
03
04
1]
#1590000
1!
1/
13
14
0]
08
1:
0?
1`
0d
1e
15
